{
  "_fv": 24,
  "_type": "procedure",
  "definition": {
    "procedurexml": "<xml xmlns=\"https://developers.google.com/blockly/xml\"><block type=\"event_trigger\" deletable=\"false\" x=\"35\" y=\"-121\"><field name=\"trigger\">no_ext_trigger</field><next><block type=\"controls_if\"><value name=\"IF0\"><block type=\"logic_binary_ops\"><field name=\"OP\">AND</field><value name=\"A\"><block type=\"logic_binary_ops\"><field name=\"OP\">AND</field><value name=\"A\"><block type=\"logic_binary_ops\"><field name=\"OP\">AND</field><value name=\"A\"><block type=\"compare_mcitems\"><value name=\"a\"><block type=\"gui_get_item_inslot\"><value name=\"slotid\"><block type=\"math_number\"><field name=\"NUM\">0</field></block></value><value name=\"entity\"><block type=\"entity_from_deps\"></block></value></block></value><value name=\"b\"><block type=\"mcitem_all\"><field name=\"value\">Items.GLASS_BOTTLE</field></block></value></block></value><value name=\"B\"><block type=\"compare_mcitems\"><value name=\"a\"><block type=\"gui_get_item_inslot\"><value name=\"slotid\"><block type=\"math_number\"><field name=\"NUM\">1</field></block></value><value name=\"entity\"><block type=\"entity_from_deps\"></block></value></block></value><value name=\"b\"><block type=\"mcitem_all\"><field name=\"value\">Items.SPECKLED_MELON</field></block></value></block></value></block></value><value name=\"B\"><block type=\"logic_binary_ops\"><field name=\"OP\">AND</field><value name=\"A\"><block type=\"logic_binary_ops\"><field name=\"OP\">AND</field><value name=\"A\"><block type=\"compare_mcitems\"><value name=\"a\"><block type=\"gui_get_item_inslot\"><value name=\"slotid\"><block type=\"math_number\"><field name=\"NUM\">2</field></block></value><value name=\"entity\"><block type=\"entity_from_deps\"></block></value></block></value><value name=\"b\"><block type=\"mcitem_all\"><field name=\"value\">Blocks.WITHER_SKELETON_WALL_SKULL</field></block></value></block></value><value name=\"B\"><block type=\"compare_mcitems\"><value name=\"a\"><block type=\"gui_get_item_inslot\"><value name=\"slotid\"><block type=\"math_number\"><field name=\"NUM\">3</field></block></value><value name=\"entity\"><block type=\"entity_from_deps\"></block></value></block></value><value name=\"b\"><block type=\"mcitem_all\"><field name=\"value\">Items.NETHER_WART</field></block></value></block></value></block></value><value name=\"B\"><block type=\"logic_binary_ops\"><field name=\"OP\">AND</field><value name=\"A\"><block type=\"compare_mcitems\"><value name=\"a\"><block type=\"gui_get_item_inslot\"><value name=\"slotid\"><block type=\"math_number\"><field name=\"NUM\">4</field></block></value><value name=\"entity\"><block type=\"entity_from_deps\"></block></value></block></value><value name=\"b\"><block type=\"mcitem_all\"><field name=\"value\">Items.CHORUS_FRUIT</field></block></value></block></value><value name=\"B\"><block type=\"compare_mcitems\"><value name=\"a\"><block type=\"gui_get_item_inslot\"><value name=\"slotid\"><block type=\"math_number\"><field name=\"NUM\">5</field></block></value><value name=\"entity\"><block type=\"entity_from_deps\"></block></value></block></value><value name=\"b\"><block type=\"mcitem_all\"><field name=\"value\">Items.HONEYCOMB</field></block></value></block></value></block></value></block></value></block></value><value name=\"B\"><block type=\"logic_binary_ops\"><field name=\"OP\">OR</field><value name=\"A\"><block type=\"math_binary_ops\"><field name=\"OP\">EQ</field><value name=\"A\"><block type=\"gui_get_amount_inslot\"><value name=\"slotid\"><block type=\"math_number\"><field name=\"NUM\">6</field></block></value><value name=\"entity\"><block type=\"entity_from_deps\"></block></value></block></value><value name=\"B\"><block type=\"math_number\"><field name=\"NUM\">0</field></block></value></block></value><value name=\"B\"><block type=\"compare_mcitems\"><value name=\"a\"><block type=\"gui_get_item_inslot\"><value name=\"slotid\"><block type=\"math_number\"><field name=\"NUM\">6</field></block></value><value name=\"entity\"><block type=\"entity_from_deps\"></block></value></block></value><value name=\"b\"><block type=\"mcitem_all\"><field name=\"value\">CUSTOM:WatermelonPineappleTea</field></block></value></block></value></block></value></block></value><statement name=\"DO0\"><block type=\"gui_remove_items\"><value name=\"amount\"><block type=\"math_number\"><field name=\"NUM\">1</field></block></value><value name=\"slotid\"><block type=\"math_number\"><field name=\"NUM\">0</field></block></value><value name=\"entity\"><block type=\"entity_from_deps\"></block></value><next><block type=\"gui_remove_items\"><value name=\"amount\"><block type=\"math_number\"><field name=\"NUM\">1</field></block></value><value name=\"slotid\"><block type=\"math_number\"><field name=\"NUM\">1</field></block></value><value name=\"entity\"><block type=\"entity_from_deps\"></block></value><next><block type=\"gui_remove_items\"><value name=\"amount\"><block type=\"math_number\"><field name=\"NUM\">1</field></block></value><value name=\"slotid\"><block type=\"math_number\"><field name=\"NUM\">2</field></block></value><value name=\"entity\"><block type=\"entity_from_deps\"></block></value><next><block type=\"gui_remove_items\"><value name=\"amount\"><block type=\"math_number\"><field name=\"NUM\">1</field></block></value><value name=\"slotid\"><block type=\"math_number\"><field name=\"NUM\">3</field></block></value><value name=\"entity\"><block type=\"entity_from_deps\"></block></value><next><block type=\"gui_remove_items\"><value name=\"amount\"><block type=\"math_number\"><field name=\"NUM\">1</field></block></value><value name=\"slotid\"><block type=\"math_number\"><field name=\"NUM\">4</field></block></value><value name=\"entity\"><block type=\"entity_from_deps\"></block></value><next><block type=\"gui_remove_items\"><value name=\"amount\"><block type=\"math_number\"><field name=\"NUM\">1</field></block></value><value name=\"slotid\"><block type=\"math_number\"><field name=\"NUM\">5</field></block></value><value name=\"entity\"><block type=\"entity_from_deps\"></block></value><next><block type=\"gui_set_items\"><value name=\"amount\"><block type=\"math_dual_ops\"><field name=\"OP\">ADD</field><value name=\"A\"><block type=\"gui_get_amount_inslot\"><value name=\"slotid\"><block type=\"math_number\"><field name=\"NUM\">6</field></block></value><value name=\"entity\"><block type=\"entity_from_deps\"></block></value></block></value><value name=\"B\"><block type=\"math_number\"><field name=\"NUM\">1</field></block></value></block></value><value name=\"item\"><block type=\"mcitem_all\"><field name=\"value\">CUSTOM:WatermelonPineappleTea</field></block></value><value name=\"slotid\"><block type=\"math_number\"><field name=\"NUM\">6</field></block></value><value name=\"entity\"><block type=\"entity_from_deps\"></block></value></block></next></block></next></block></next></block></next></block></next></block></next></block></statement><next><block type=\"controls_if\"><value name=\"IF0\"><block type=\"logic_binary_ops\"><field name=\"OP\">AND</field><value name=\"A\"><block type=\"logic_binary_ops\"><field name=\"OP\">AND</field><value name=\"A\"><block type=\"logic_binary_ops\"><field name=\"OP\">AND</field><value name=\"A\"><block type=\"compare_mcitems\"><value name=\"a\"><block type=\"gui_get_item_inslot\"><value name=\"slotid\"><block type=\"math_number\"><field name=\"NUM\">0</field></block></value><value name=\"entity\"><block type=\"entity_from_deps\"></block></value></block></value><value name=\"b\"><block type=\"mcitem_all\"><field name=\"value\">Items.BOWL</field></block></value></block></value><value name=\"B\"><block type=\"compare_mcitems\"><value name=\"a\"><block type=\"gui_get_item_inslot\"><value name=\"slotid\"><block type=\"math_number\"><field name=\"NUM\">1</field></block></value><value name=\"entity\"><block type=\"entity_from_deps\"></block></value></block></value><value name=\"b\"><block type=\"mcitem_all\"><field name=\"value\">Blocks.HAY_BLOCK</field></block></value></block></value></block></value><value name=\"B\"><block type=\"compare_mcitems\"><value name=\"a\"><block type=\"gui_get_item_inslot\"><value name=\"slotid\"><block type=\"math_number\"><field name=\"NUM\">3</field></block></value><value name=\"entity\"><block type=\"entity_from_deps\"></block></value></block></value><value name=\"b\"><block type=\"mcitem_all\"><field name=\"value\">Items.NETHER_WART</field></block></value></block></value></block></value><value name=\"B\"><block type=\"logic_binary_ops\"><field name=\"OP\">OR</field><value name=\"A\"><block type=\"math_binary_ops\"><field name=\"OP\">EQ</field><value name=\"A\"><block type=\"gui_get_amount_inslot\"><value name=\"slotid\"><block type=\"math_number\"><field name=\"NUM\">6</field></block></value><value name=\"entity\"><block type=\"entity_from_deps\"></block></value></block></value><value name=\"B\"><block type=\"math_number\"><field name=\"NUM\">0</field></block></value></block></value><value name=\"B\"><block type=\"compare_mcitems\"><value name=\"a\"><block type=\"gui_get_item_inslot\"><value name=\"slotid\"><block type=\"math_number\"><field name=\"NUM\">6</field></block></value><value name=\"entity\"><block type=\"entity_from_deps\"></block></value></block></value><value name=\"b\"><block type=\"mcitem_all\"><field name=\"value\">CUSTOM:Rice</field></block></value></block></value></block></value></block></value><statement name=\"DO0\"><block type=\"gui_remove_items\"><value name=\"amount\"><block type=\"math_number\"><field name=\"NUM\">1</field></block></value><value name=\"slotid\"><block type=\"math_number\"><field name=\"NUM\">0</field></block></value><value name=\"entity\"><block type=\"entity_from_deps\"></block></value><next><block type=\"gui_remove_items\"><value name=\"amount\"><block type=\"math_number\"><field name=\"NUM\">1</field></block></value><value name=\"slotid\"><block type=\"math_number\"><field name=\"NUM\">1</field></block></value><value name=\"entity\"><block type=\"entity_from_deps\"></block></value><next><block type=\"gui_remove_items\"><value name=\"amount\"><block type=\"math_number\"><field name=\"NUM\">1</field></block></value><value name=\"slotid\"><block type=\"math_number\"><field name=\"NUM\">2</field></block></value><value name=\"entity\"><block type=\"entity_from_deps\"></block></value><next><block type=\"gui_remove_items\"><value name=\"amount\"><block type=\"math_number\"><field name=\"NUM\">1</field></block></value><value name=\"slotid\"><block type=\"math_number\"><field name=\"NUM\">3</field></block></value><value name=\"entity\"><block type=\"entity_from_deps\"></block></value><next><block type=\"gui_remove_items\"><value name=\"amount\"><block type=\"math_number\"><field name=\"NUM\">1</field></block></value><value name=\"slotid\"><block type=\"math_number\"><field name=\"NUM\">4</field></block></value><value name=\"entity\"><block type=\"entity_from_deps\"></block></value><next><block type=\"gui_remove_items\"><value name=\"amount\"><block type=\"math_number\"><field name=\"NUM\">1</field></block></value><value name=\"slotid\"><block type=\"math_number\"><field name=\"NUM\">5</field></block></value><value name=\"entity\"><block type=\"entity_from_deps\"></block></value><next><block type=\"gui_set_items\"><value name=\"amount\"><block type=\"math_dual_ops\"><field name=\"OP\">ADD</field><value name=\"A\"><block type=\"gui_get_amount_inslot\"><value name=\"slotid\"><block type=\"math_number\"><field name=\"NUM\">6</field></block></value><value name=\"entity\"><block type=\"entity_from_deps\"></block></value></block></value><value name=\"B\"><block type=\"math_number\"><field name=\"NUM\">1</field></block></value></block></value><value name=\"item\"><block type=\"mcitem_all\"><field name=\"value\">CUSTOM:Rice</field></block></value><value name=\"slotid\"><block type=\"math_number\"><field name=\"NUM\">6</field></block></value><value name=\"entity\"><block type=\"entity_from_deps\"></block></value></block></next></block></next></block></next></block></next></block></next></block></next></block></statement></block></next></block></next></block></xml>"
  }
}